<?xml version="1.0" encoding="UTF-8"?>
<!DOCTYPE suite SYSTEM "http://testng.org/testng-1.0.dtd">
<suite guice-stage="DEVELOPMENT" verbose="0" name="Failed suite [AllTests]">
  <test thread-count="5" verbose="0" name="LoginTests-Phone(failed)">
    <classes>
      <class name="com.smartentry.automation.PositivePhoneLoginTests">
        <methods>
          <include name="positivephoneloginTests"/>
          <include name="setup"/>
          <include name="teardown"/>
        </methods>
      </class> <!-- com.smartentry.automation.PositivePhoneLoginTests -->
    </classes>
  </test> <!-- LoginTests-Phone(failed) -->
  <test thread-count="5" verbose="0" name="LoginTests-email(failed)">
    <classes>
      <class name="com.smartentry.automation.PositiveEmailLoginTests">
        <methods>
          <include name="positiveemailloginTests"/>
        </methods>
      </class> <!-- com.smartentry.automation.PositiveEmailLoginTests -->
    </classes>
  </test> <!-- LoginTests-email(failed) -->
</suite> <!-- Failed suite [AllTests] -->
